* MAIN LST FILE


* Layer 0
C fastcap_bot_FWD.qui 1.0 0.0 0.0 0.0 +
C fastcap_out_FWD.qui 1.0 0.0 0.0 0.0 +
C fastcap_in_FWD.qui 1.0 0.0 0.0 0.0 +
C fastcap_top_FWD.qui 3.0 0.0 0.0 0.0 +
C fastcap_starter_FWD.qui 1.0 0.0 0.0 0.0 +
C fastcap_ender_FWD.qui 1.0 0.0 0.0 0.0


* Layer 1
D fastcap_D_CONFIL.qui 1.0 3.0 0.0 0.0 0.354457 0.0 0.0 0.354457 -
D fastcap_TopFace_D.qui 1.0 3.0 0.0 0.0 2.6098500000000004e-05 0.0 0.0 5.219700000000001e-05 -
D fastcap_D_ODD.qui 1.0 3.0 0.0 0.0 0.17722850.0 0.0 0.354457 -
C fastcap_top_REV.qui 3.0 0.0 0.0 0.354457 +
C fastcap_out_REV.qui 3.0 0.0 0.0 0.354457 +
C fastcap_bot_REV.qui 3.0 0.0 0.0 0.354457 +
C fastcap_in_REV.qui 3.0 0.0 0.0 0.354457 +
C fastcap_starter_REV.qui 3.0 0.0 0.0 0.354457 +
C fastcap_ender_REV.qui 3.0 0.0 0.0 0.354457


* Layer 2
D fastcap_D_CONFIL.qui 1.0 3.0 0.0 0.0 1.1178540000000001 0.0 0.0 1.1178540000000001 -
D fastcap_D_EVEN.qui 1.0 3.0 0.0 0.0 0.73615550000000010.0 0.0 1.1178540000000001 -
C fastcap_top_FWD.qui 3.0 0.0 0.0 1.1178540000000001 +
C fastcap_out_FWD.qui 3.0 0.0 0.0 1.1178540000000001 +
C fastcap_bot_FWD.qui 3.0 0.0 0.0 1.1178540000000001 +
C fastcap_in_FWD.qui 3.0 0.0 0.0 1.1178540000000001 +
C fastcap_starter_FWD.qui 3.0 0.0 0.0 1.1178540000000001 +
C fastcap_ender_FWD.qui 3.0 0.0 0.0 1.1178540000000001


* Layer 3
D fastcap_TopFace_D.qui 1.0 3.0 0.0 0.0 1.4722849015000001 0.0 0.0 1.4722588030000001 -
D fastcap_D_ODD.qui 1.0 3.0 0.0 0.0 1.29508250000000010.0 0.0 1.4723110000000001 -
C fastcap_top_REV.qui 1.0 0.0 0.0 1.4723110000000001 +
C fastcap_out_REV.qui 1.0 0.0 0.0 1.4723110000000001 +
C fastcap_bot_REV.qui 3.0 0.0 0.0 1.4723110000000001 +
C fastcap_in_REV.qui 1.0 0.0 0.0 1.4723110000000001 +
C fastcap_starter_REV.qui 1.0 0.0 0.0 1.4723110000000001 +
C fastcap_ender_REV.qui 1.0 0.0 0.0 1.4723110000000001

